{
  "tabPane": [
    {
      "title": "Setpoints \u0026 Plots",
      "autoPopulate": false,
      "autoPopulatePrefix": "SmartDashboard/",
      "widgetPane": {
        "gridSize": 128.0,
        "showGrid": false,
        "hgap": 16.0,
        "vgap": 16.0,
        "tiles": {
          "0,0": {
            "size": [
              3,
              3
            ],
            "content": {
              "_type": "Graph",
              "_source0": "network_table:///SmartDashboard/Shooter RPM",
              "_title": "Shooter RPM",
              "Graph/Visible time": 30.0,
              "Y-axis/Automatic bounds": true,
              "Y-axis/Upper bound": 1.0,
              "Y-axis/Lower bound": -1.0
            }
          },
          "6,2": {
            "size": [
              2,
              1
            ],
            "content": {
              "_type": "Text View",
              "_source0": "network_table:///SmartDashboard/Shooter Velocity Error",
              "_title": "Shooter Velocity Error"
            }
          },
          "6,0": {
            "size": [
              2,
              1
            ],
            "content": {
              "_type": "Text View",
              "_source0": "network_table:///SmartDashboard/Shooter Output Current",
              "_title": "Shooter Output Current"
            }
          },
          "8,0": {
            "size": [
              1,
              1
            ],
            "content": {
              "_type": "Text View",
              "_source0": "network_table:///SmartDashboard/Shooter Follower Output Current",
              "_title": "Shooter Follower Output Current"
            }
          },
          "8,1": {
            "size": [
              1,
              1
            ],
            "content": {
              "_type": "Boolean Box",
              "_source0": "network_table:///SmartDashboard/Using velocity references",
              "_title": "Using velocity references",
              "Colors/Color when true": "#7CFC00FF",
              "Colors/Color when false": "#8B0000FF"
            }
          },
          "6,1": {
            "size": [
              1,
              1
            ],
            "content": {
              "_type": "Text View",
              "_source0": "network_table:///SmartDashboard/Set shooter goal RPM",
              "_title": "SmartDashboard/Set shooter goal RPM"
            }
          },
          "7,1": {
            "size": [
              1,
              1
            ],
            "content": {
              "_type": "Text View",
              "_source0": "network_table:///SmartDashboard/Set feeder goal RPM",
              "_title": "SmartDashboard/Set feeder goal RPM"
            }
          },
          "8,2": {
            "size": [
              1,
              1
            ],
            "content": {
              "_type": "Text View",
              "_source0": "network_table:///SmartDashboard/Feeder Velocity Error",
              "_title": "SmartDashboard/Feeder Velocity Error"
            }
          },
          "3,0": {
            "size": [
              3,
              3
            ],
            "content": {
              "_type": "Graph",
              "_source0": "network_table:///SmartDashboard/Feeder RPM",
              "_title": "SmartDashboard/Feeder RPM",
              "Graph/Visible time": 30.0,
              "Y-axis/Automatic bounds": true,
              "Y-axis/Upper bound": 1.0,
              "Y-axis/Lower bound": -1.0
            }
          }
        }
      }
    },
    {
      "title": "PID Tuning",
      "autoPopulate": false,
      "autoPopulatePrefix": "",
      "widgetPane": {
        "gridSize": 128.0,
        "showGrid": false,
        "hgap": 16.0,
        "vgap": 16.0,
        "tiles": {
          "4,0": {
            "size": [
              1,
              1
            ],
            "content": {
              "_type": "Text View",
              "_source0": "network_table:///SmartDashboard/Set P",
              "_title": "Set P"
            }
          },
          "5,0": {
            "size": [
              1,
              1
            ],
            "content": {
              "_type": "Text View",
              "_source0": "network_table:///SmartDashboard/Set I",
              "_title": "Set I"
            }
          },
          "6,0": {
            "size": [
              1,
              1
            ],
            "content": {
              "_type": "Text View",
              "_source0": "network_table:///SmartDashboard/Set D",
              "_title": "Set D"
            }
          },
          "7,0": {
            "size": [
              1,
              1
            ],
            "content": {
              "_type": "Text View",
              "_source0": "network_table:///SmartDashboard/Set FF",
              "_title": "Set FF"
            }
          },
          "8,0": {
            "size": [
              1,
              1
            ],
            "content": {
              "_type": "Text View",
              "_source0": "network_table:///SmartDashboard/Set I Zone",
              "_title": "Set I Zone"
            }
          },
          "7,1": {
            "size": [
              2,
              1
            ],
            "content": {
              "_type": "Text View",
              "_source0": "network_table:///SmartDashboard/Set goal duty cycle",
              "_title": "Set goal duty cycle"
            }
          },
          "5,2": {
            "size": [
              4,
              1
            ],
            "content": {
              "_type": "Toggle Switch",
              "_source0": "network_table:///SmartDashboard/Use velocity references",
              "_title": "Use velocity references"
            }
          },
          "0,1": {
            "size": [
              3,
              2
            ],
            "content": {
              "_type": "Graph",
              "_source0": "network_table:///SmartDashboard/Shooter RPM",
              "_title": "Shooter RPM",
              "Graph/Visible time": 30.0,
              "Y-axis/Automatic bounds": true,
              "Y-axis/Upper bound": 1.0,
              "Y-axis/Lower bound": -1.0
            }
          },
          "5,1": {
            "size": [
              2,
              1
            ],
            "content": {
              "_type": "Text View",
              "_source0": "network_table:///SmartDashboard/Shooter Velocity Error",
              "_title": "Shooter Velocity Error"
            }
          },
          "0,0": {
            "size": [
              1,
              1
            ],
            "content": {
              "_type": "Text View",
              "_source0": "network_table:///SmartDashboard/Set feeder P",
              "_title": "SmartDashboard/Set feeder P"
            }
          },
          "1,0": {
            "size": [
              1,
              1
            ],
            "content": {
              "_type": "Text View",
              "_source0": "network_table:///SmartDashboard/Set feeder I",
              "_title": "SmartDashboard/Set feeder I"
            }
          },
          "2,0": {
            "size": [
              1,
              1
            ],
            "content": {
              "_type": "Text View",
              "_source0": "network_table:///SmartDashboard/Set feeder D",
              "_title": "SmartDashboard/Set feeder D"
            }
          },
          "3,0": {
            "size": [
              1,
              1
            ],
            "content": {
              "_type": "Text View",
              "_source0": "network_table:///SmartDashboard/Set feeder FF",
              "_title": "SmartDashboard/Set feeder FF"
            }
          },
          "3,1": {
            "size": [
              1,
              1
            ],
            "content": {
              "_type": "Text View",
              "_source0": "network_table:///SmartDashboard/Set feeder I Zone",
              "_title": "SmartDashboard/Set feeder I Zone"
            }
          }
        }
      }
    },
    {
      "title": "Controls",
      "autoPopulate": false,
      "autoPopulatePrefix": "",
      "widgetPane": {
        "gridSize": 128.0,
        "showGrid": true,
        "hgap": 16.0,
        "vgap": 16.0,
        "tiles": {
          "0,0": {
            "size": [
              2,
              1
            ],
            "content": {
              "_type": "Text View",
              "_source0": "network_table:///SmartDashboard/Set shooter goal RPM",
              "_title": "/SmartDashboard/Set shooter goal RPM"
            }
          },
          "0,2": {
            "size": [
              2,
              1
            ],
            "content": {
              "_type": "Toggle Switch",
              "_source0": "network_table:///SmartDashboard/Control Hood Automatically",
              "_title": "SmartDashboard/Control Hood Automatically"
            }
          },
          "3,0": {
            "size": [
              4,
              3
            ],
            "content": {
              "_type": "Camera Stream",
              "_source0": "camera_server://limelight",
              "_title": "limelight",
              "Crosshair/Show crosshair": true,
              "Crosshair/Crosshair color": "#FFFFFFFF",
              "Controls/Show controls": true,
              "Controls/Rotation": "NONE",
              "compression": -1.0,
              "fps": -1,
              "imageWidth": 0,
              "imageHeight": 0
            }
          },
          "7,0": {
            "size": [
              2,
              1
            ],
            "content": {
              "_type": "Text View",
              "_source0": "network_table:///LiveWindow/Ungrouped/navX-Sensor/Value",
              "_title": "/LiveWindow/Ungrouped/navX-Sensor/Value"
            }
          },
          "7,2": {
            "size": [
              1,
              1
            ],
            "content": {
              "_type": "Text View",
              "_source0": "network_table:///SmartDashboard/Turret Angle",
              "_title": "/SmartDashboard/Turret Angle"
            }
          },
          "7,1": {
            "size": [
              1,
              1
            ],
            "content": {
              "_type": "Text View",
              "_source0": "network_table:///SmartDashboard/Control servo",
              "_title": "/SmartDashboard/Control servo"
            }
          },
          "8,1": {
            "size": [
              1,
              1
            ],
            "content": {
              "_type": "Text View",
              "_source0": "network_table:///SmartDashboard/Servo position",
              "_title": "/SmartDashboard/Servo position"
            }
          },
          "8,2": {
            "size": [
              1,
              1
            ],
            "content": {
              "_type": "Text View",
              "_source0": "network_table:///SmartDashboard/Set shooter goal RPM",
              "_title": "/SmartDashboard/Set shooter goal RPM"
            }
          }
        }
      }
    },
    {
      "title": "God Tab 6",
      "autoPopulate": false,
      "autoPopulatePrefix": "",
      "widgetPane": {
        "gridSize": 128.0,
        "showGrid": true,
        "hgap": 16.0,
        "vgap": 16.0,
        "tiles": {
          "0,1": {
            "size": [
              2,
              1
            ],
            "content": {
              "_type": "Text View",
              "_source0": "network_table:///SmartDashboard/Vision Distance",
              "_title": "/SmartDashboard/Vision Distance"
            }
          },
          "0,0": {
            "size": [
              3,
              1
            ],
            "content": {
              "_type": "Text View",
              "_source0": "network_table:///SmartDashboard/Close Distance Regression",
              "_title": "/SmartDashboard/Close Distance Regression"
            }
          },
          "3,0": {
            "size": [
              3,
              3
            ],
            "content": {
              "_type": "Camera Stream",
              "_source0": "camera_server://limelight",
              "_title": "limelight",
              "Crosshair/Show crosshair": true,
              "Crosshair/Crosshair color": "#FFFFFFFF",
              "Controls/Show controls": true,
              "Controls/Rotation": "NONE",
              "compression": -1.0,
              "fps": -1,
              "imageWidth": 0,
              "imageHeight": 0
            }
          },
          "2,1": {
            "size": [
              1,
              1
            ],
            "content": {
              "_type": "Text View",
              "_source0": "network_table:///limelight/ty",
              "_title": "limelight/ty"
            }
          },
          "7,1": {
            "size": [
              2,
              1
            ],
            "content": {
              "_type": "Toggle Button",
              "_source0": "network_table:///SmartDashboard/Zero Gyro",
              "_title": "SmartDashboard/Zero Gyro"
            }
          },
          "7,0": {
            "size": [
              2,
              1
            ],
            "content": {
              "_type": "Toggle Button",
              "_source0": "network_table:///SmartDashboard/Zero Turret",
              "_title": "SmartDashboard/Zero Turret"
            }
          },
          "7,2": {
            "size": [
              1,
              1
            ],
            "content": {
              "_type": "Text View",
              "_source0": "network_table:///LiveWindow/Ungrouped/navX-Sensor/Value",
              "_title": "/LiveWindow/Ungrouped/navX-Sensor/Value"
            }
          },
          "8,2": {
            "size": [
              1,
              1
            ],
            "content": {
              "_type": "Text View",
              "_source0": "network_table:///SmartDashboard/Turret Angle",
              "_title": "/SmartDashboard/Turret Angle"
            }
          }
        }
      }
    },
    {
      "title": "Tab 6",
      "autoPopulate": false,
      "autoPopulatePrefix": "",
      "widgetPane": {
        "gridSize": 128.0,
        "showGrid": true,
        "hgap": 16.0,
        "vgap": 16.0,
        "tiles": {
          "0,0": {
            "size": [
              4,
              3
            ],
            "content": {
              "_type": "Graph",
              "_source0": "network_table:///SmartDashboard/Align Turret Reference",
              "_title": "SmartDashboard/Align Turret Reference",
              "Graph/Visible time": 30.0,
              "Y-axis/Automatic bounds": true,
              "Y-axis/Upper bound": 1.0,
              "Y-axis/Lower bound": -1.0
            }
          },
          "8,1": {
            "size": [
              1,
              1
            ],
            "content": {
              "_type": "Text View",
              "_source0": "network_table:///SmartDashboard/Inner Port Tx",
              "_title": "SmartDashboard/Inner Port Tx"
            }
          },
          "8,2": {
            "size": [
              1,
              1
            ],
            "content": {
              "_type": "Text View",
              "_source0": "network_table:///SmartDashboard/Limelight Angle Offset",
              "_title": "SmartDashboard/Limelight Angle Offset"
            }
          },
          "4,0": {
            "size": [
              4,
              3
            ],
            "content": {
              "_type": "Graph",
              "_source0": "network_table:///SmartDashboard/Before MA",
              "_title": "SmartDashboard/Before MA",
              "Graph/Visible time": 30.0,
              "Y-axis/Automatic bounds": true,
              "Y-axis/Upper bound": 1.0,
              "Y-axis/Lower bound": -1.0
            }
          },
          "8,0": {
            "size": [
              1,
              1
            ],
            "content": {
              "_type": "Text View",
              "_source0": "network_table:///limelight/tx",
              "_title": "limelight/tx"
            }
          }
        }
      }
    },
    {
      "title": "Servo Tab 6",
      "autoPopulate": false,
      "autoPopulatePrefix": "",
      "widgetPane": {
        "gridSize": 128.0,
        "showGrid": true,
        "hgap": 16.0,
        "vgap": 16.0,
        "tiles": {
          "0,2": {
            "size": [
              2,
              1
            ],
            "content": {
              "_type": "Text View",
              "_source0": "network_table:///SmartDashboard/Accelerator position",
              "_title": "/SmartDashboard/Accelerator position"
            }
          },
          "5,1": {
            "size": [
              1,
              1
            ],
            "content": {
              "_type": "Text View",
              "_source0": "network_table:///SmartDashboard/error",
              "_title": "/SmartDashboard/error"
            }
          },
          "6,0": {
            "size": [
              3,
              3
            ],
            "content": {
              "_type": "Graph",
              "_source0": "network_table:///SmartDashboard/Output",
              "_title": "/SmartDashboard/Output",
              "Graph/Visible time": 30.0,
              "Y-axis/Automatic bounds": true,
              "Y-axis/Upper bound": 1.0,
              "Y-axis/Lower bound": -1.0
            }
          },
          "0,0": {
            "size": [
              2,
              1
            ],
            "content": {
              "_type": "Toggle Switch",
              "_source0": "network_table:///SmartDashboard/Control Hood Automatically",
              "_title": "SmartDashboard/Control Hood Automatically"
            }
          },
          "0,1": {
            "size": [
              2,
              1
            ],
            "content": {
              "_type": "Text View",
              "_source0": "network_table:///SmartDashboard/Set hood setpoint",
              "_title": "/SmartDashboard/Set hood setpoint"
            }
          },
          "2,0": {
            "size": [
              3,
              3
            ],
            "content": {
              "_type": "Camera Stream",
              "_source0": "camera_server://limelight",
              "_title": "limelight",
              "Crosshair/Show crosshair": true,
              "Crosshair/Crosshair color": "#FFFFFFFF",
              "Controls/Show controls": true,
              "Controls/Rotation": "NONE",
              "compression": -1.0,
              "fps": -1,
              "imageWidth": 0,
              "imageHeight": 0
            }
          },
          "5,0": {
            "size": [
              1,
              1
            ],
            "content": {
              "_type": "Text View",
              "_source0": "network_table:///SmartDashboard/Vision Distance",
              "_title": "/SmartDashboard/Vision Distance"
            }
          },
          "5,2": {
            "size": [
              1,
              1
            ],
            "content": {
              "_type": "Text View",
              "_source0": "network_table:///SmartDashboard/Set shooter goal RPM",
              "_title": "/SmartDashboard/Set shooter goal RPM"
            }
          }
        }
      }
    },
    {
      "title": "Tab 7",
      "autoPopulate": false,
      "autoPopulatePrefix": "",
      "widgetPane": {
        "gridSize": 128.0,
        "showGrid": true,
        "hgap": 16.0,
        "vgap": 16.0,
        "tiles": {
          "3,1": {
            "size": [
              3,
              1
            ],
            "content": {
              "_type": "Text View",
              "_source0": "network_table:///SmartDashboard/Servo position",
              "_title": "/SmartDashboard/Servo position"
            }
          },
          "3,0": {
            "size": [
              3,
              1
            ],
            "content": {
              "_type": "Text View",
              "_source0": "network_table:///SmartDashboard/Control ervo",
              "_title": "/SmartDashboard/Control ervo"
            }
          },
          "6,0": {
            "size": [
              1,
              1
            ],
            "content": {
              "_type": "Text View",
              "_source0": "network_table:///SmartDashboard/Shooter RPM",
              "_title": "/SmartDashboard/Shooter RPM"
            }
          },
          "6,1": {
            "size": [
              1,
              1
            ],
            "content": {
              "_type": "Text View",
              "_source0": "network_table:///SmartDashboard/Shooter Error",
              "_title": "/SmartDashboard/Shooter Error"
            }
          },
          "7,1": {
            "size": [
              1,
              1
            ],
            "content": {
              "_type": "Text View",
              "_source0": "network_table:///SmartDashboard/Set FF",
              "_title": "/SmartDashboard/Set FF"
            }
          },
          "6,2": {
            "size": [
              2,
              1
            ],
            "content": {
              "_type": "Text View",
              "_source0": "network_table:///SmartDashboard/Shooter Applied Output",
              "_title": "/SmartDashboard/Shooter Applied Output"
            }
          }
        }
      }
    }
  ],
  "windowGeometry": {
    "x": -7.199999809265137,
    "y": -7.199999809265137,
    "width": 1550.4000244140625,
    "height": 848.0
  }
}